…
brfss
```

    ## # A tibble: 2,125 x 9
    ##     year state county     excellent very_good  good  fair  poor above_good
    ##    <int> <chr> <chr>          <dbl>     <dbl> <dbl> <dbl> <dbl>      <dbl>
    ##  1  2002 AK    Anchorage~      27.9      33.7  23.8   8.6   5.9       61.6
    ##  2  2002 AL    Jefferson~      18.5      30.9  32.7  12.1   5.9       49.4
    ##  3  2002 AR    Pulaski C~      24.1      29.3  29.9  12.5   4.2       53.4
    ##  4  2002 AZ    Maricopa ~      21.6      36.6  26.9  10.3   4.6       58.2
    ##  5  2002 AZ    Pima Coun~      26.6      30.1  31.9   7.5   3.9       56.7
    ##  6  2002 CA    Los Angel~      22.7      29.8  28.7  14.3   4.5       52.5
    ##  7  2002 CO    Adams Cou~      21.2      31.2  29    14.4   4.2       52.4
    ##  8  2002 CO    Arapahoe ~      25.5      35.2  29.3   8     2.1       60.7
    ##  9  2002 CO    Denver Co~      22.2      27.1  36.6  11.1   3         49.3
    ## 10  2002 CO    Jefferson~      23.4      36.6  26.3  11.4   2.4       60  
    ## # ... with 2,115 more rows
…
